<svg xmlns="http://www.w3.org/2000/svg" width="40" height="40" viewBox="0 0 40 40">
  <g id="Grupo_38" data-name="Grupo 38" transform="translate(0 0)">
    <path id="Caminho_110" data-name="Caminho 110" d="M329.667,386.747h-5.42v-2.5a1.251,1.251,0,1,0-2.5,0v2.5h-7.493v-2.5a1.251,1.251,0,1,0-2.5,0v2.5h-7.5v-2.5a1.248,1.248,0,1,0-2.5,0v2.5h-5.42A3.337,3.337,0,0,0,293,390.079v29.582A3.338,3.338,0,0,0,296.333,423h33.335A3.338,3.338,0,0,0,333,419.661V390.079a3.337,3.337,0,0,0-3.333-3.333Zm.83,32.915a.832.832,0,0,1-.83.836H296.333a.832.832,0,0,1-.83-.836V390.079a.83.83,0,0,1,.83-.83h5.42v2.5a1.248,1.248,0,0,0,2.5,0v-2.5h7.5v2.5a1.251,1.251,0,0,0,2.5,0v-2.5h7.493v2.5a1.251,1.251,0,0,0,2.5,0v-2.5h5.42a.83.83,0,0,1,.83.83Zm0,0" transform="translate(-293 -383)" fill="#fff"/>
    <rect id="Retângulo_10" data-name="Retângulo 10" width="3.199" height="2.398" transform="translate(9.202 15.56)" fill="#fff"/>
    <rect id="Retângulo_11" data-name="Retângulo 11" width="3.199" height="2.398" transform="translate(9.202 22.042)" fill="#fff"/>
    <rect id="Retângulo_12" data-name="Retângulo 12" width="3.199" height="2.398" transform="translate(9.202 28.524)" fill="#fff"/>
    <rect id="Retângulo_13" data-name="Retângulo 13" width="3.199" height="2.398" transform="translate(18.396 28.524)" fill="#fff"/>
    <rect id="Retângulo_14" data-name="Retângulo 14" width="3.199" height="2.398" transform="translate(18.396 22.042)" fill="#fff"/>
    <rect id="Retângulo_15" data-name="Retângulo 15" width="3.199" height="2.398" transform="translate(18.396 15.56)" fill="#fff"/>
    <rect id="Retângulo_16" data-name="Retângulo 16" width="3.199" height="2.398" transform="translate(27.599 28.524)" fill="#fff"/>
    <rect id="Retângulo_17" data-name="Retângulo 17" width="3.199" height="2.398" transform="translate(27.599 22.042)" fill="#fff"/>
    <rect id="Retângulo_18" data-name="Retângulo 18" width="3.199" height="2.398" transform="translate(27.599 15.56)" fill="#fff"/>
  </g>
</svg>
