<svg xmlns="http://www.w3.org/2000/svg" width="32.545" height="32.545" viewBox="0 0 32.545 32.545">
  <g id="Grupo_77" data-name="Grupo 77" transform="translate(0 0)">
    <g id="Grupo_75" data-name="Grupo 75" transform="translate(0 0)">
      <path id="Caminho_139" data-name="Caminho 139" d="M1243.842,1167.552H1225.1a6.907,6.907,0,0,1-6.9-6.9v-18.748a6.907,6.907,0,0,1,6.9-6.9h18.746a6.907,6.907,0,0,1,6.9,6.9v18.748A6.906,6.906,0,0,1,1243.842,1167.552ZM1225.1,1135.73a6.183,6.183,0,0,0-6.176,6.176v18.748a6.182,6.182,0,0,0,6.176,6.174h18.746a6.182,6.182,0,0,0,6.176-6.174v-18.748a6.183,6.183,0,0,0-6.176-6.176Z" transform="translate(-1218.196 -1135.007)" fill="#3e3e3e"/>
    </g>
    <g id="Grupo_76" data-name="Grupo 76" transform="translate(5.514 7.483)">
      <path id="Caminho_140" data-name="Caminho 140" d="M1255.647,1194.385a12.849,12.849,0,0,0,12.937-12.938c0-.2,0-.392-.014-.587a9.225,9.225,0,0,0,2.268-2.354,9.115,9.115,0,0,1-2.61.716,4.576,4.576,0,0,0,2-2.515,9.154,9.154,0,0,1-2.888,1.1,4.547,4.547,0,0,0-7.865,3.108,4.658,4.658,0,0,0,.117,1.039,12.92,12.92,0,0,1-9.372-4.751,4.55,4.55,0,0,0,1.409,6.069,4.512,4.512,0,0,1-2.06-.57c0,.021,0,.039,0,.058a4.548,4.548,0,0,0,3.646,4.457,4.553,4.553,0,0,1-1.2.161,4.5,4.5,0,0,1-.855-.084,4.552,4.552,0,0,0,4.247,3.159,9.117,9.117,0,0,1-5.647,1.947,9.242,9.242,0,0,1-1.084-.063,12.859,12.859,0,0,0,6.969,2.044" transform="translate(-1248.678 -1176.374)" fill="#3e3e3e"/>
    </g>
  </g>
</svg>
